        -:    0:Source:my_math.c
        -:    1:// my_math.c
        -:    2:#include "my_math.h"
        -:    3:
        -:    4:// user-defined function to check prime number
function _Z16checkPrimeNumberi called 1 returned 100% blocks executed 57%
        1:    5:int checkPrimeNumber(int n) {
        1:    6:    int j, flag = 1;
       1*:    7:    for (j = 2; j <= n / 2; ++j) {
branch  0 taken 0%
branch  1 taken 100% (fallthrough)
    #####:    8:        if (n % j == 0) {
branch  0 never executed
branch  1 never executed
    #####:    9:            flag = 0;
    #####:   10:            break;
        -:   11:        }
        -:   12:    }
        1:   13:    return flag;
        -:   14:}
